{
  "movies": [
    {
      "title": "10 Things I Hate About You",
      "description":
        "A new kid must find a guy to date the meanest girl in school, the older sister of the girl he has a crush on, who cannot date until her older sister does.",
      "type": "movie",
      "publishedDate": 931478400000,
      "availableDate": 931478400000,
      "metadata": [
        {
          "value": "en",
          "name": "language"
        }
      ],
      "contents": [
        {
          "url":
            "http://d2bqeap5aduv6p.cloudfront.net/project_coderush_640x360_521kbs_56min.mp4",
          "format": "mp4",
          "width": 640,
          "height": 360,
          "language": "en",
          "duration": 3600000,
          "geoLock": false,
          "id": "vid_103"
        }
      ],
      "credits": [
        {
          "role": "Director",
          "name": "Gil Junger"
        },
        {
          "role": "Heath Ledger",
          "name": "Heath Ledger"
        },
        {
          "role": "Julia Stiles",
          "name": "Julia Stiles"
        },
        {
          "role": "Joseph Gordon-Levitt",
          "name": "Joseph Gordon-Levitt"
        }
      ],
      "parentalRatings": [
        {
          "scheme": "MPAA",
          "rating": "PG_13"
        }
      ],
      "images": [
        {
          "type": "cover",
          "url": "http://lorempixel.com/214/317/?t=1",
          "width": 214,
          "height": 317,
          "id": "f67e6e8a7478d1dae24e869f3d7081cf"
        }
      ],
      "categories": [
        {
          "title": "Comedy",
          "description": "Comedy movies",
          "id": "movies-comedy"
        },
        {
          "title": "Drama",
          "description": "Drama movies",
          "id": "movies-drama"
        },
        {
          "title": "Romance",
          "description": "Romantic movies",
          "id": "movies-romance"
        }
      ],
      "id": "10-things-i-hate-about-you"
    },
    {
      "title": "12 Years a Slave",
      "description":
        "In the antebellum United States, Solomon Northup, a free black man from upstate New York, is abducted and sold into slavery.",
      "type": "movie",
      "publishedDate": 1389312000000,
      "availableDate": 1389312000000,
      "metadata": [
        {
          "value": "en",
          "name": "language"
        }
      ],
      "contents": [
        {
          "url":
            "http://d2bqeap5aduv6p.cloudfront.net/project_coderush_640x360_521kbs_56min.mp4",
          "format": "mp4",
          "width": 640,
          "height": 360,
          "language": "en",
          "duration": 7200000,
          "geoLock": false,
          "id": "vid_101"
        }
      ],
      "credits": [
        {
          "role": "Director",
          "name": "Steve McQueen"
        },
        {
          "role": "Chiwetel Ejiofor",
          "name": "Chiwetel Ejiofor"
        },
        {
          "role": "Michael Kenneth Williams",
          "name": "Michael Kenneth Williams"
        },
        {
          "role": "Michael Fassbender",
          "name": "Michael Fassbender"
        }
      ],
      "parentalRatings": [
        {
          "scheme": "MPAA",
          "rating": "R"
        }
      ],
      "images": [
        {
          "type": "cover",
          "url": "http://lorempixel.com/214/317/",
          "width": 214,
          "height": 317,
          "id": "0fed2015ee5eed694899959976bd49d3"
        }
      ],
      "categories": [
        {
          "title": "Biography",
          "description": "Biography movies",
          "id": "movies-biography"
        },
        {
          "title": "Drama",
          "description": "Drama movies",
          "id": "movies-drama"
        },
        {
          "title": "History",
          "description": "History movies",
          "id": "movies-history"
        }
      ],
      "id": "12-years-a-slave"
    },
    {
      "title": "2 Guns",
      "description":
        "A DEA agent and a naval intelligence officer find themselves on the run after a botched attempt to infiltrate a drug cartel. While fleeing, they learn the secret of their shaky alliance: Neither knew that the other was an undercover agent.",
      "type": "movie",
      "publishedDate": 1376611200000,
      "availableDate": 1376611200000,
      "metadata": [
        {
          "value": "en",
          "name": "language"
        }
      ],
      "contents": [
        {
          "url":
            "http://d2bqeap5aduv6p.cloudfront.net/project_coderush_640x360_521kbs_56min.mp4",
          "format": "mp4",
          "width": 640,
          "height": 360,
          "language": "en",
          "duration": 9000000,
          "geoLock": false,
          "id": "vid_102"
        }
      ],
      "credits": [
        {
          "role": "Director",
          "name": "Baltasar Kormákur"
        },
        {
          "role": "Denzel Washington",
          "name": "Denzel Washington"
        },
        {
          "role": "Mark Wahlberg",
          "name": "Mark Wahlberg"
        },
        {
          "role": "Paula Patton",
          "name": "Paula Patton"
        }
      ],
      "parentalRatings": [
        {
          "scheme": "MPAA",
          "rating": "R"
        }
      ],
      "images": [
        {
          "type": "cover",
          "url": "http://lorempixel.com/214/317/?t=2",
          "width": 214,
          "height": 317,
          "id": "65651bfb058aa122e2a3734ae473484c"
        }
      ],
      "categories": [
        {
          "title": "Action",
          "description": "Action movies",
          "id": "movies-action"
        },
        {
          "title": "Comedy",
          "description": "Comedy movies",
          "id": "movies-comedy"
        },
        {
          "title": "Crime",
          "description": "Crime movies",
          "id": "movies-crime"
        },
        {
          "title": "Drama",
          "description": "Drama movies",
          "id": "movies-drama"
        },
        {
          "title": "Thriller",
          "description": "Thriller movies",
          "id": "movies-thriller"
        }
      ],
      "id": "2-guns"
    },
    {
      "title": "2001: A Space Odyssey",
      "description":
        "Humanity finds a mysterious, obviously artificial, object buried beneath the Lunar surface and, with the intelligent computer H.A.L. 9000, sets off on a quest.",
      "type": "movie",
      "publishedDate": -45273600000,
      "availableDate": -45273600000,
      "metadata": [
        {
          "value": "en",
          "name": "language"
        }
      ],
      "contents": [
        {
          "url":
            "http://d2bqeap5aduv6p.cloudfront.net/project_coderush_640x360_521kbs_56min.mp4",
          "format": "mp4",
          "width": 640,
          "height": 360,
          "language": "en",
          "duration": 3600000,
          "geoLock": false,
          "id": "vid_103"
        }
      ],
      "credits": [
        {
          "role": "Director",
          "name": "Stanley Kubrick"
        },
        {
          "role": "Keir Dullea",
          "name": "Keir Dullea"
        },
        {
          "role": "Gary Lockwood",
          "name": "Gary Lockwood"
        },
        {
          "role": "William Sylvester",
          "name": "William Sylvester"
        }
      ],
      "parentalRatings": [
        {
          "scheme": "MPAA",
          "rating": "TV_PG"
        }
      ],
      "images": [
        {
          "type": "cover",
          "url": "http://lorempixel.com/214/317/?t=3",
          "width": 214,
          "height": 317,
          "id": "3fcb093562bf2e4b8a428100e825a555"
        }
      ],
      "categories": [
        {
          "title": "Mystery",
          "description": "Mystery movies",
          "id": "movies-mystery"
        },
        {
          "title": "Sci-fi",
          "description": "Sci-fi movies",
          "id": "movies-sci-fi"
        }
      ],
      "id": "2001-a-space-odyssey"
    },
    {
      "title": "21 Jump Street",
      "description":
        "A pair of underachieving cops are sent back to a local high school to blend in and bring down a synthetic drug ring.",
      "type": "movie",
      "publishedDate": 1331856000000,
      "availableDate": 1331856000000,
      "metadata": [
        {
          "value": "en",
          "name": "language"
        }
      ],
      "contents": [
        {
          "url":
            "http://d2bqeap5aduv6p.cloudfront.net/project_coderush_640x360_521kbs_56min.mp4",
          "format": "mp4",
          "width": 1182,
          "height": 665,
          "language": "en",
          "duration": 0,
          "geoLock": false,
          "id": "vid_104"
        }
      ],
      "credits": [
        {
          "role": "Director",
          "name": "Phil Lord, Christopher Miller"
        },
        {
          "role": "Jonah Hill",
          "name": "Jonah Hill"
        },
        {
          "role": "Channing Tatum",
          "name": "Channing Tatum"
        },
        {
          "role": "Ice Cube",
          "name": "Ice Cube"
        }
      ],
      "parentalRatings": [
        {
          "scheme": "MPAA",
          "rating": "R"
        }
      ],
      "images": [
        {
          "type": "cover",
          "url": "http://lorempixel.com/214/317/?t=4",
          "width": 214,
          "height": 317,
          "id": "6e7971f65cdda17e07881c92cccfc453"
        }
      ],
      "categories": [
        {
          "title": "Action",
          "description": "Action movies",
          "id": "movies-action"
        },
        {
          "title": "Comedy",
          "description": "Comedy movies",
          "id": "movies-comedy"
        },
        {
          "title": "Crime",
          "description": "Crime movies",
          "id": "movies-crime"
        }
      ],
      "id": "21-jump-street"
    },
    {
      "title": "22 Jump Street",
      "description":
        "After making their way through high school (twice), big changes are in store for officers Schmidt and Jenko when they go deep undercover at a local college.",
      "type": "movie",
      "publishedDate": 1402012800000,
      "availableDate": 1402012800000,
      "metadata": [
        {
          "value": "en",
          "name": "language"
        }
      ],
      "contents": [
        {
          "url":
            "http://d2bqeap5aduv6p.cloudfront.net/project_coderush_640x360_521kbs_56min.mp4",
          "format": "mp4",
          "width": 640,
          "height": 360,
          "language": "en",
          "duration": 9000000,
          "geoLock": false,
          "id": "vid_102"
        }
      ],
      "credits": [
        {
          "role": "Director",
          "name": "Phil Lord, Christopher Miller"
        },
        {
          "role": "Channing Tatum",
          "name": "Channing Tatum"
        },
        {
          "role": "Jonah Hill",
          "name": "Jonah Hill"
        },
        {
          "role": "Ice Cube",
          "name": "Ice Cube"
        }
      ],
      "parentalRatings": [
        {
          "scheme": "MPAA",
          "rating": "R"
        }
      ],
      "images": [
        {
          "type": "cover",
          "url": "http://lorempixel.com/214/317/?t=5",
          "width": 214,
          "height": 317,
          "id": "549cdb6bbb45b6eef0f52ff03fd7d545"
        }
      ],
      "categories": [
        {
          "title": "Action",
          "description": "Action movies",
          "id": "movies-action"
        },
        {
          "title": "Comedy",
          "description": "Comedy movies",
          "id": "movies-comedy"
        },
        {
          "title": "Crime",
          "description": "Crime movies",
          "id": "movies-crime"
        }
      ],
      "id": "22-jump-street"
    },
    {
      "title": "28 Days Later...",
      "description":
        "Four weeks after a mysterious, incurable virus spreads throughout the UK, a handful of survivors try to find sanctuary.",
      "type": "movie",
      "publishedDate": 1036108800000,
      "availableDate": 1036108800000,
      "metadata": [
        {
          "value": "en",
          "name": "language"
        }
      ],
      "contents": [
        {
          "url":
            "http://d2bqeap5aduv6p.cloudfront.net/project_coderush_640x360_521kbs_56min.mp4",
          "format": "mp4",
          "width": 640,
          "height": 360,
          "language": "en",
          "duration": 9000000,
          "geoLock": false,
          "id": "vid_102"
        }
      ],
      "credits": [
        {
          "role": "Director",
          "name": "Danny Boyle"
        },
        {
          "role": "Cillian Murphy",
          "name": "Cillian Murphy"
        },
        {
          "role": "Naomie Harris",
          "name": "Naomie Harris"
        },
        {
          "role": "Christopher Eccleston",
          "name": "Christopher Eccleston"
        }
      ],
      "parentalRatings": [
        {
          "scheme": "MPAA",
          "rating": "R"
        }
      ],
      "images": [
        {
          "type": "cover",
          "url": "http://lorempixel.com/214/317/?t=7",
          "width": 214,
          "height": 317,
          "id": "1811915c31b528983a2a51fb49e1e624"
        }
      ],
      "categories": [
        {
          "title": "Horror",
          "description": "Horror movies",
          "id": "movies-horror"
        }
      ],
      "id": "28-days-later"
    },
    {
      "title": "3 Days to Kill",
      "description":
        "A dying CIA agent trying to reconnect with his estranged daughter is offered an experimental drug that could save his life in exchange for one last assignment.",
      "type": "movie",
      "publishedDate": 1403222400000,
      "availableDate": 1403222400000,
      "metadata": [
        {
          "value": "en",
          "name": "language"
        }
      ],
      "contents": [
        {
          "url":
            "http://d2bqeap5aduv6p.cloudfront.net/project_coderush_640x360_521kbs_56min.mp4",
          "format": "mp4",
          "width": 640,
          "height": 360,
          "language": "en",
          "duration": 9000000,
          "geoLock": false,
          "id": "vid_102"
        }
      ],
      "credits": [
        {
          "role": "Director",
          "name": "McG"
        },
        {
          "role": "Kevin Costner",
          "name": "Kevin Costner"
        },
        {
          "role": "Hailee Steinfeld",
          "name": "Hailee Steinfeld"
        },
        {
          "role": "Connie Nielsen",
          "name": "Connie Nielsen"
        }
      ],
      "parentalRatings": [
        {
          "scheme": "MPAA",
          "rating": "PG_13"
        }
      ],
      "images": [
        {
          "type": "cover",
          "url": "http://lorempixel.com/214/317/?t=8",
          "width": 214,
          "height": 317,
          "id": "7ad139a542d955319d4f0a80d83fa158"
        }
      ],
      "categories": [
        {
          "title": "Action",
          "description": "Action movies",
          "id": "movies-action"
        },
        {
          "title": "Drama",
          "description": "Drama movies",
          "id": "movies-drama"
        },
        {
          "title": "Thriller",
          "description": "Thriller movies",
          "id": "movies-thriller"
        }
      ],
      "id": "3-days-to-kill"
    },
    {
      "title": "300",
      "description":
        "King Leonidas and a force of 300 men fight the Persians at Thermopylae in 480 B.C.",
      "type": "movie",
      "publishedDate": 1174608000000,
      "availableDate": 1174608000000,
      "metadata": [
        {
          "value": "en",
          "name": "language"
        }
      ],
      "contents": [
        {
          "url":
            "http://d2bqeap5aduv6p.cloudfront.net/project_coderush_640x360_521kbs_56min.mp4",
          "format": "mp4",
          "width": 1182,
          "height": 665,
          "language": "en",
          "duration": 0,
          "geoLock": false,
          "id": "vid_104"
        }
      ],
      "credits": [
        {
          "role": "Director",
          "name": "Zack Snyder"
        },
        {
          "role": "Gerard Butler",
          "name": "Gerard Butler"
        },
        {
          "role": "Lena Headey",
          "name": "Lena Headey"
        },
        {
          "role": "David Wenham",
          "name": "David Wenham"
        }
      ],
      "parentalRatings": [
        {
          "scheme": "MPAA",
          "rating": "R"
        }
      ],
      "images": [
        {
          "type": "cover",
          "url": "http://lorempixel.com/214/317/?t=9",
          "width": 214,
          "height": 317,
          "id": "0a1e34de28dd78015749bc7a2e2d6b09"
        }
      ],
      "categories": [
        {
          "title": "Action",
          "description": "Action movies",
          "id": "movies-action"
        },
        {
          "title": "Fantasy",
          "description": "Fantasy movies",
          "id": "movies-fantasy"
        },
        {
          "title": "War",
          "description": "War movies",
          "id": "movies-war"
        }
      ],
      "id": "300"
    },
    {
      "title": "300: Rise of an Empire",
      "description":
        "Greek general Themistokles leads the charge against invading Persian forces led by mortal-turned-god Xerxes and Artemisia, vengeful commander of the Persian navy.",
      "type": "movie",
      "publishedDate": 1394150400000,
      "availableDate": 1394150400000,
      "metadata": [
        {
          "value": "en",
          "name": "language"
        }
      ],
      "contents": [
        {
          "url":
            "http://d2bqeap5aduv6p.cloudfront.net/project_coderush_640x360_521kbs_56min.mp4",
          "format": "mp4",
          "width": 640,
          "height": 360,
          "language": "en",
          "duration": 9000000,
          "geoLock": false,
          "id": "vid_102"
        }
      ],
      "credits": [
        {
          "role": "Director",
          "name": "Noam Murro"
        },
        {
          "role": "Sullivan Stapleton",
          "name": "Sullivan Stapleton"
        },
        {
          "role": "Eva Green",
          "name": "Eva Green"
        },
        {
          "role": "Lena Headey",
          "name": "Lena Headey"
        }
      ],
      "parentalRatings": [
        {
          "scheme": "MPAA",
          "rating": "R"
        }
      ],
      "images": [
        {
          "type": "cover",
          "url": "http://lorempixel.com/214/317/?t=10",
          "width": 214,
          "height": 317,
          "id": "fbe14add426bbcf07f3673f7d9149030"
        }
      ],
      "categories": [
        {
          "title": "Action",
          "description": "Action movies",
          "id": "movies-action"
        },
        {
          "title": "Drama",
          "description": "Drama movies",
          "id": "movies-drama"
        },
        {
          "title": "Fantasy",
          "description": "Fantasy movies",
          "id": "movies-fantasy"
        },
        {
          "title": "War",
          "description": "War movies",
          "id": "movies-war"
        }
      ],
      "id": "300-rise-of-an-empire"
    },
    {
      "title": "47 Ronin",
      "description":
        "A band of samurai set out to avenge the death and dishonor of their master at the hands of a ruthless shogun.",
      "type": "movie",
      "publishedDate": 1388016000000,
      "availableDate": 1388016000000,
      "metadata": [
        {
          "value": "en",
          "name": "language"
        }
      ],
      "contents": [
        {
          "url":
            "http://d2bqeap5aduv6p.cloudfront.net/project_coderush_640x360_521kbs_56min.mp4",
          "format": "mp4",
          "width": 1182,
          "height": 665,
          "language": "en",
          "duration": 0,
          "geoLock": false,
          "id": "vid_104"
        }
      ],
      "credits": [
        {
          "role": "Director",
          "name": "Carl Rinsch"
        },
        {
          "role": "Keanu Reeves",
          "name": "Keanu Reeves"
        },
        {
          "role": "Hiroyuki Sanada",
          "name": "Hiroyuki Sanada"
        },
        {
          "role": "Ko Shibasaki",
          "name": "Ko Shibasaki"
        }
      ],
      "parentalRatings": [
        {
          "scheme": "MPAA",
          "rating": "PG_13"
        }
      ],
      "images": [
        {
          "type": "cover",
          "url": "http://lorempixel.com/214/317/?t=11",
          "width": 214,
          "height": 317,
          "id": "c45951f923c7daa2c26bd56a59d24c0e"
        }
      ],
      "categories": [
        {
          "title": "Action",
          "description": "Action movies",
          "id": "movies-action"
        },
        {
          "title": "Adventure",
          "description": "Adventure movies",
          "id": "movies-adventure"
        },
        {
          "title": "Fantasy",
          "description": "Fantasy movies",
          "id": "movies-fantasy"
        }
      ],
      "id": "47-ronin"
    },
    {
      "title": "A Clockwork Orange",
      "description":
        "In future Britain, charismatic delinquent Alex DeLarge is jailed and volunteers for an experimental aversion therapy developed by the government in an effort to solve society's crime problem - but not all goes according to plan.",
      "type": "movie",
      "publishedDate": 953251200000,
      "availableDate": 953251200000,
      "metadata": [
        {
          "value": "en",
          "name": "language"
        }
      ],
      "contents": [
        {
          "url":
            "http://d2bqeap5aduv6p.cloudfront.net/project_coderush_640x360_521kbs_56min.mp4",
          "format": "mp4",
          "width": 640,
          "height": 360,
          "language": "en",
          "duration": 7200000,
          "geoLock": false,
          "id": "vid_101"
        }
      ],
      "credits": [
        {
          "role": "Director",
          "name": "Stanley Kubrick"
        },
        {
          "role": "Malcolm McDowell",
          "name": "Malcolm McDowell"
        },
        {
          "role": "Patrick Magee",
          "name": "Patrick Magee"
        },
        {
          "role": "Michael Bates",
          "name": "Michael Bates"
        }
      ],
      "parentalRatings": [
        {
          "scheme": "MPAA",
          "rating": "R"
        }
      ],
      "images": [
        {
          "type": "cover",
          "url": "http://lorempixel.com/214/317/?t=12",
          "width": 214,
          "height": 317,
          "id": "b24e8451d8a6e648cf8a48d6f7a3a8df"
        }
      ],
      "categories": [
        {
          "title": "Crime",
          "description": "Crime movies",
          "id": "movies-crime"
        },
        {
          "title": "Drama",
          "description": "Drama movies",
          "id": "movies-drama"
        },
        {
          "title": "Sci-fi",
          "description": "Sci-fi movies",
          "id": "movies-sci-fi"
        }
      ],
      "id": "a-clockwork-orange"
    },
    {
      "title": "A Girl Walks Home Alone at Night",
      "description":
        "In the Iranian ghost-town Bad City, a place that reeks of death and loneliness, the townspeople are...",
      "type": "movie",
      "publishedDate": 1390089600000,
      "availableDate": 1390089600000,
      "metadata": [
        {
          "value": "en",
          "name": "language"
        }
      ],
      "contents": [
        {
          "url":
            "http://d2bqeap5aduv6p.cloudfront.net/project_coderush_640x360_521kbs_56min.mp4",
          "format": "mp4",
          "width": 640,
          "height": 360,
          "language": "en",
          "duration": 9000000,
          "geoLock": false,
          "id": "vid_102"
        }
      ],
      "credits": [
        {
          "role": "Director",
          "name": "Ana Lily Amirpour"
        },
        {
          "role": "Sheila Vand",
          "name": "Sheila Vand"
        },
        {
          "role": "Arash Marandi",
          "name": "Arash Marandi"
        },
        {
          "role": "Marshall Manesh",
          "name": "Marshall Manesh"
        }
      ],
      "parentalRatings": [
        {
          "scheme": "MPAA",
          "rating": "R"
        }
      ],
      "images": [
        {
          "type": "cover",
          "url": "http://lorempixel.com/214/317/?t=13",
          "width": 214,
          "height": 317,
          "id": "6c6a06c996cccc5f98b70e519e8ca51e"
        }
      ],
      "categories": [
        {
          "title": "Horror",
          "description": "Horror movies",
          "id": "movies-horror"
        },
        {
          "title": "Romance",
          "description": "Romantic movies",
          "id": "movies-romance"
        },
        {
          "title": "Thriller",
          "description": "Thriller movies",
          "id": "movies-thriller"
        }
      ],
      "id": "a-girl-walks-home-alone-at-night"
    },
    {
      "title": "A Million Ways to Die in the West",
      "description":
        "As a cowardly farmer begins to fall for the mysterious new woman in town, he must put his new-found courage to the test when her husband, a notorious gun-slinger, announces his arrival.",
      "type": "movie",
      "publishedDate": 1401408000000,
      "availableDate": 1401408000000,
      "metadata": [
        {
          "value": "en",
          "name": "language"
        }
      ],
      "contents": [
        {
          "url":
            "http://d2bqeap5aduv6p.cloudfront.net/project_coderush_640x360_521kbs_56min.mp4",
          "format": "mp4",
          "width": 640,
          "height": 360,
          "language": "en",
          "duration": 3600000,
          "geoLock": false,
          "id": "vid_103"
        }
      ],
      "credits": [
        {
          "role": "Director",
          "name": "Seth MacFarlane"
        },
        {
          "role": "Seth MacFarlane",
          "name": "Seth MacFarlane"
        },
        {
          "role": "Charlize Theron",
          "name": "Charlize Theron"
        },
        {
          "role": "Liam Neeson",
          "name": "Liam Neeson"
        }
      ],
      "parentalRatings": [
        {
          "scheme": "MPAA",
          "rating": "R"
        }
      ],
      "images": [
        {
          "type": "cover",
          "url": "http://lorempixel.com/214/317/?t=14",
          "width": 214,
          "height": 317,
          "id": "d481a7dbe0847cd29c9da408be7f094a"
        }
      ],
      "categories": [
        {
          "title": "Comedy",
          "description": "Comedy movies",
          "id": "movies-comedy"
        },
        {
          "title": "Western",
          "description": "Western movies",
          "id": "movies-western"
        }
      ],
      "id": "a-million-ways-to-die-in-the-west"
    },
    {
      "title": "A Nightmare on Elm Street",
      "description":
        "In the dreams of his victims, a spectral child murderer stalks the children of the members of the lynch mob that killed him.",
      "type": "movie",
      "publishedDate": 500860800000,
      "availableDate": 500860800000,
      "metadata": [
        {
          "value": "en",
          "name": "language"
        }
      ],
      "contents": [
        {
          "url":
            "http://d2bqeap5aduv6p.cloudfront.net/project_coderush_640x360_521kbs_56min.mp4",
          "format": "mp4",
          "width": 640,
          "height": 360,
          "language": "en",
          "duration": 9000000,
          "geoLock": false,
          "id": "vid_102"
        }
      ],
      "credits": [
        {
          "role": "Director",
          "name": "Wes Craven"
        },
        {
          "role": "Heather Langenkamp",
          "name": "Heather Langenkamp"
        },
        {
          "role": "Johnny Depp",
          "name": "Johnny Depp"
        },
        {
          "role": "Robert Englund",
          "name": "Robert Englund"
        }
      ],
      "parentalRatings": [
        {
          "scheme": "MPAA",
          "rating": "R"
        }
      ],
      "images": [
        {
          "type": "cover",
          "url": "http://lorempixel.com/214/317/?t=15",
          "width": 214,
          "height": 317,
          "id": "500f4cc48182d7d75660a12fbe3278bd"
        }
      ],
      "categories": [
        {
          "title": "Horror",
          "description": "Horror movies",
          "id": "movies-horror"
        }
      ],
      "id": "a-nightmare-on-elm-street"
    },
    {
      "title": "A Nightmare on Elm Street",
      "description":
        "A re-imagining of the horror icon Freddy Krueger, a serial-killer who wields a glove with four blades embedded in the fingers and kills people in their dreams, resulting in their real death in reality.",
      "type": "movie",
      "publishedDate": 1273190400000,
      "availableDate": 1273190400000,
      "metadata": [
        {
          "value": "en",
          "name": "language"
        }
      ],
      "contents": [
        {
          "url":
            "http://d2bqeap5aduv6p.cloudfront.net/project_coderush_640x360_521kbs_56min.mp4",
          "format": "mp4",
          "width": 1182,
          "height": 665,
          "language": "en",
          "duration": 0,
          "geoLock": false,
          "id": "vid_104"
        }
      ],
      "credits": [
        {
          "role": "Director",
          "name": "Samuel Bayer"
        },
        {
          "role": "Jackie Earle Haley",
          "name": "Jackie Earle Haley"
        },
        {
          "role": "Rooney Mara",
          "name": "Rooney Mara"
        },
        {
          "role": "Kyle Gallner",
          "name": "Kyle Gallner"
        }
      ],
      "parentalRatings": [
        {
          "scheme": "MPAA",
          "rating": "R"
        }
      ],
      "images": [
        {
          "type": "cover",
          "url": "http://lorempixel.com/214/317/?t=17",
          "width": 214,
          "height": 317,
          "id": "327ab98fdc563ac25b1804e86b057e25"
        }
      ],
      "categories": [
        {
          "title": "Horror",
          "description": "Horror movies",
          "id": "movies-horror"
        },
        {
          "title": "Mystery",
          "description": "Mystery movies",
          "id": "movies-mystery"
        },
        {
          "title": "Thriller",
          "description": "Thriller movies",
          "id": "movies-thriller"
        }
      ],
      "id": "a-nightmare-on-elm-street-2010"
    },
    {
      "title": "A Walk Among the Tombstones",
      "description":
        "Private investigator Matthew Scudder is hired by a drug kingpin to find out who kidnapped and murdered his wife.",
      "type": "movie",
      "publishedDate": 1411084800000,
      "availableDate": 1411084800000,
      "metadata": [
        {
          "value": "en",
          "name": "language"
        }
      ],
      "contents": [
        {
          "url":
            "http://d2bqeap5aduv6p.cloudfront.net/project_coderush_640x360_521kbs_56min.mp4",
          "format": "mp4",
          "width": 640,
          "height": 360,
          "language": "en",
          "duration": 3600000,
          "geoLock": false,
          "id": "vid_103"
        }
      ],
      "credits": [
        {
          "role": "Director",
          "name": "Scott Frank"
        },
        {
          "role": "Liam Neeson",
          "name": "Liam Neeson"
        },
        {
          "role": "Dan Stevens",
          "name": "Dan Stevens"
        },
        {
          "role": "David Harbour",
          "name": "David Harbour"
        }
      ],
      "parentalRatings": [
        {
          "scheme": "MPAA",
          "rating": "R"
        }
      ],
      "images": [
        {
          "type": "cover",
          "url": "http://lorempixel.com/214/317/?t=18",
          "width": 214,
          "height": 317,
          "id": "f3d2b20a23f8731eb4af72550bcdc8f9"
        }
      ],
      "categories": [
        {
          "title": "Crime",
          "description": "Crime movies",
          "id": "movies-crime"
        },
        {
          "title": "Drama",
          "description": "Drama movies",
          "id": "movies-drama"
        },
        {
          "title": "Mystery",
          "description": "Mystery movies",
          "id": "movies-mystery"
        },
        {
          "title": "Thriller",
          "description": "Thriller movies",
          "id": "movies-thriller"
        }
      ],
      "id": "a-walk-among-the-tombstones"
    },
    {
      "title": "About Time",
      "description":
        "At the age of 21, Tim discovers he can travel in time and change what happens and has happened in his own life. His decision to make his world a better place by getting a girlfriend turns out not to be as easy as you might think.",
      "type": "movie",
      "publishedDate": 1378252800000,
      "availableDate": 1378252800000,
      "metadata": [
        {
          "value": "en",
          "name": "language"
        }
      ],
      "contents": [
        {
          "url":
            "http://d2bqeap5aduv6p.cloudfront.net/project_coderush_640x360_521kbs_56min.mp4",
          "format": "mp4",
          "width": 640,
          "height": 360,
          "language": "en",
          "duration": 7200000,
          "geoLock": false,
          "id": "vid_101"
        }
      ],
      "credits": [
        {
          "role": "Director",
          "name": "Richard Curtis"
        },
        {
          "role": "Domhnall Gleeson",
          "name": "Domhnall Gleeson"
        },
        {
          "role": "Rachel McAdams",
          "name": "Rachel McAdams"
        },
        {
          "role": "Bill Nighy",
          "name": "Bill Nighy"
        }
      ],
      "parentalRatings": [
        {
          "scheme": "MPAA",
          "rating": "R"
        }
      ],
      "images": [
        {
          "type": "cover",
          "url": "http://lorempixel.com/214/317/?t=19",
          "width": 214,
          "height": 317,
          "id": "294bdc4248374324117835b01bc36180"
        }
      ],
      "categories": [
        {
          "title": "Drama",
          "description": "Drama movies",
          "id": "movies-drama"
        },
        {
          "title": "Fantasy",
          "description": "Fantasy movies",
          "id": "movies-fantasy"
        },
        {
          "title": "Romance",
          "description": "Romantic movies",
          "id": "movies-romance"
        }
      ],
      "id": "about-time"
    },
    {
      "title": "Abraham Lincoln: Vampire Hunter",
      "description":
        "Abraham Lincoln, the 16th President of the United States, discovers vampires are planning to take over the United States. He makes it his mission to eliminate them.",
      "type": "movie",
      "publishedDate": 1340150400000,
      "availableDate": 1340150400000,
      "metadata": [
        {
          "value": "en",
          "name": "language"
        }
      ],
      "contents": [
        {
          "url":
            "http://d2bqeap5aduv6p.cloudfront.net/project_coderush_640x360_521kbs_56min.mp4",
          "format": "mp4",
          "width": 640,
          "height": 360,
          "language": "en",
          "duration": 7200000,
          "geoLock": false,
          "id": "vid_101"
        }
      ],
      "credits": [
        {
          "role": "Director",
          "name": "Timur Bekmambetov"
        },
        {
          "role": "Benjamin Walker",
          "name": "Benjamin Walker"
        },
        {
          "role": "Rufus Sewell",
          "name": "Rufus Sewell"
        },
        {
          "role": "Dominic Cooper",
          "name": "Dominic Cooper"
        }
      ],
      "parentalRatings": [
        {
          "scheme": "MPAA",
          "rating": "R"
        }
      ],
      "images": [
        {
          "type": "cover",
          "url": "http://lorempixel.com/214/317/?t=20",
          "width": 214,
          "height": 317,
          "id": "7ac56e9f03f05d3a8f37d9fdf58f7a0f"
        }
      ],
      "categories": [
        {
          "title": "Action",
          "description": "Action movies",
          "id": "movies-action"
        },
        {
          "title": "Fantasy",
          "description": "Fantasy movies",
          "id": "movies-fantasy"
        },
        {
          "title": "Horror",
          "description": "Horror movies",
          "id": "movies-horror"
        },
        {
          "title": "Thriller",
          "description": "Thriller movies",
          "id": "movies-thriller"
        }
      ],
      "id": "abraham-lincoln-vampire-hunter"
    },
    {
      "title": "Addicted",
      "description":
        "A gallerist risks her family and flourishing career when she enters into an affair with a talented painter and slowly loses control of her life.",
      "type": "movie",
      "publishedDate": 1412899200000,
      "availableDate": 1412899200000,
      "metadata": [
        {
          "value": "en",
          "name": "language"
        }
      ],
      "contents": [
        {
          "url":
            "http://d2bqeap5aduv6p.cloudfront.net/project_coderush_640x360_521kbs_56min.mp4",
          "format": "mp4",
          "width": 640,
          "height": 360,
          "language": "en",
          "duration": 3600000,
          "geoLock": false,
          "id": "vid_103"
        }
      ],
      "credits": [
        {
          "role": "Director",
          "name": "Bille Woodruff"
        },
        {
          "role": "Sharon Leal",
          "name": "Sharon Leal"
        },
        {
          "role": "Boris Kodjoe",
          "name": "Boris Kodjoe"
        },
        {
          "role": "John Newberg",
          "name": "John Newberg"
        }
      ],
      "parentalRatings": [
        {
          "scheme": "MPAA",
          "rating": "R"
        }
      ],
      "images": [
        {
          "type": "cover",
          "url": "http://lorempixel.com/214/317/?t=21",
          "width": 214,
          "height": 317,
          "id": "61c54b37ac44ca04d54cca71fbd47efb"
        }
      ],
      "categories": [
        {
          "title": "Drama",
          "description": "Drama movies",
          "id": "movies-drama"
        },
        {
          "title": "Thriller",
          "description": "Thriller movies",
          "id": "movies-thriller"
        }
      ],
      "id": "addicted"
    },
    {
      "title": "Alexander",
      "description":
        "Alexander, the King of Macedonia and one of the greatest military leaders in the history of warfare, conquers much of the known world.",
      "type": "movie",
      "publishedDate": 1105056000000,
      "availableDate": 1105056000000,
      "metadata": [
        {
          "value": "en",
          "name": "language"
        }
      ],
      "contents": [
        {
          "url":
            "http://d2bqeap5aduv6p.cloudfront.net/project_coderush_640x360_521kbs_56min.mp4",
          "format": "mp4",
          "width": 640,
          "height": 360,
          "language": "en",
          "duration": 9000000,
          "geoLock": false,
          "id": "vid_102"
        }
      ],
      "credits": [
        {
          "role": "Director",
          "name": "Oliver Stone"
        },
        {
          "role": "Colin Farrell",
          "name": "Colin Farrell"
        },
        {
          "role": "Anthony Hopkins",
          "name": "Anthony Hopkins"
        },
        {
          "role": "Rosario Dawson",
          "name": "Rosario Dawson"
        }
      ],
      "parentalRatings": [
        {
          "scheme": "MPAA",
          "rating": "UNRATED"
        }
      ],
      "images": [
        {
          "type": "cover",
          "url": "http://lorempixel.com/214/317/?t=22",
          "width": 214,
          "height": 317,
          "id": "ea77f447a3b67c2a4445bb25e7240af9"
        }
      ],
      "categories": [
        {
          "title": "Action",
          "description": "Action movies",
          "id": "movies-action"
        },
        {
          "title": "Adventure",
          "description": "Adventure movies",
          "id": "movies-adventure"
        },
        {
          "title": "Biography",
          "description": "Biography movies",
          "id": "movies-biography"
        },
        {
          "title": "Drama",
          "description": "Drama movies",
          "id": "movies-drama"
        },
        {
          "title": "History",
          "description": "History movies",
          "id": "movies-history"
        },
        {
          "title": "Romance",
          "description": "Romantic movies",
          "id": "movies-romance"
        },
        {
          "title": "War",
          "description": "War movies",
          "id": "movies-war"
        }
      ],
      "id": "alexander"
    },
    {
      "title": "Alexander and the Terrible, Horrible, No Good, Very Bad Day",
      "description":
        "Alexander's day begins with gum stuck in his hair, followed by more calamities. Though he finds little sympathy from his family and begins to wonder if bad things only happen to him, his mom, dad, brother, and sister all find themselves living through their own terrible, horrible, no good, very bad day.",
      "type": "movie",
      "publishedDate": 1414108800000,
      "availableDate": 1414108800000,
      "metadata": [
        {
          "value": "en",
          "name": "language"
        }
      ],
      "contents": [
        {
          "url":
            "http://d2bqeap5aduv6p.cloudfront.net/project_coderush_640x360_521kbs_56min.mp4",
          "format": "mp4",
          "width": 1182,
          "height": 665,
          "language": "en",
          "duration": 0,
          "geoLock": false,
          "id": "vid_104"
        }
      ],
      "credits": [
        {
          "role": "Director",
          "name": "Miguel Arteta"
        },
        {
          "role": "Steve Carell",
          "name": "Steve Carell"
        },
        {
          "role": "Jennifer Garner",
          "name": "Jennifer Garner"
        },
        {
          "role": "Ed Oxenbould",
          "name": "Ed Oxenbould"
        }
      ],
      "parentalRatings": [
        {
          "scheme": "MPAA",
          "rating": "PG"
        }
      ],
      "images": [
        {
          "type": "cover",
          "url": "http://lorempixel.com/214/317/?t=23",
          "width": 214,
          "height": 317,
          "id": "f83f884f1175ee7f112cc1a7590b1d63"
        }
      ],
      "categories": [
        {
          "title": "Comedy",
          "description": "Comedy movies",
          "id": "movies-comedy"
        },
        {
          "title": "Family",
          "description": "Family movies",
          "id": "movies-family"
        }
      ],
      "id": "alexander-and-the-terrible-horrible-no-good-very-bad-day"
    },
    {
      "title": "Alien",
      "description":
        "The commercial vessel Nostromo receives a distress call from an unexplored planet. After searching for survivors, the crew heads home only to realize that a deadly bioform has joined them.",
      "type": "movie",
      "publishedDate": 306115200000,
      "availableDate": 306115200000,
      "metadata": [
        {
          "value": "en",
          "name": "language"
        }
      ],
      "contents": [
        {
          "url":
            "http://d2bqeap5aduv6p.cloudfront.net/project_coderush_640x360_521kbs_56min.mp4",
          "format": "mp4",
          "width": 1182,
          "height": 665,
          "language": "en",
          "duration": 0,
          "geoLock": false,
          "id": "vid_104"
        }
      ],
      "credits": [
        {
          "role": "Director",
          "name": "Ridley Scott"
        },
        {
          "role": "Sigourney Weaver",
          "name": "Sigourney Weaver"
        },
        {
          "role": "Tom Skerritt",
          "name": "Tom Skerritt"
        },
        {
          "role": "John Hurt",
          "name": "John Hurt"
        }
      ],
      "parentalRatings": [
        {
          "scheme": "MPAA",
          "rating": "TV_14"
        }
      ],
      "images": [
        {
          "type": "cover",
          "url": "http://lorempixel.com/214/317/?t=24",
          "width": 214,
          "height": 317,
          "id": "7775fab68c7e78fb31308d9098989eb4"
        }
      ],
      "categories": [
        {
          "title": "Horror",
          "description": "Horror movies",
          "id": "movies-horror"
        },
        {
          "title": "Sci-fi",
          "description": "Sci-fi movies",
          "id": "movies-sci-fi"
        }
      ],
      "id": "alien"
    },
    {
      "title": "Alien 3",
      "description":
        "Ripley continues to be stalked by a savage alien, after her escape pod crashes on a prison planet.",
      "type": "movie",
      "publishedDate": 714355200000,
      "availableDate": 714355200000,
      "metadata": [
        {
          "value": "en",
          "name": "language"
        }
      ],
      "contents": [
        {
          "url":
            "http://d2bqeap5aduv6p.cloudfront.net/project_coderush_640x360_521kbs_56min.mp4",
          "format": "mp4",
          "width": 1182,
          "height": 665,
          "language": "en",
          "duration": 0,
          "geoLock": false,
          "id": "vid_104"
        }
      ],
      "credits": [
        {
          "role": "Director",
          "name": "David Fincher"
        },
        {
          "role": "Sigourney Weaver",
          "name": "Sigourney Weaver"
        },
        {
          "role": "Charles S. Dutton",
          "name": "Charles S. Dutton"
        },
        {
          "role": "Charles Dance",
          "name": "Charles Dance"
        }
      ],
      "parentalRatings": [
        {
          "scheme": "MPAA",
          "rating": "TV_14"
        }
      ],
      "images": [
        {
          "type": "cover",
          "url": "http://lorempixel.com/214/317/",
          "width": 214,
          "height": 317,
          "id": "12caac3c2f37d701a6198abfc221ceed"
        }
      ],
      "categories": [
        {
          "title": "Action",
          "description": "Action movies",
          "id": "movies-action"
        },
        {
          "title": "Sci-fi",
          "description": "Sci-fi movies",
          "id": "movies-sci-fi"
        },
        {
          "title": "Thriller",
          "description": "Thriller movies",
          "id": "movies-thriller"
        }
      ],
      "id": "alien-3"
    },
    {
      "title": "Alien: Resurrection",
      "description":
        "200 years after her death, Ellen Ripley is revived as a powerful human/Alien hybrid clone who must continue her war against the Aliens.",
      "type": "movie",
      "publishedDate": 880675200000,
      "availableDate": 880675200000,
      "metadata": [
        {
          "value": "en",
          "name": "language"
        }
      ],
      "contents": [
        {
          "url":
            "http://d2bqeap5aduv6p.cloudfront.net/project_coderush_640x360_521kbs_56min.mp4",
          "format": "mp4",
          "width": 640,
          "height": 360,
          "language": "en",
          "duration": 3600000,
          "geoLock": false,
          "id": "vid_103"
        }
      ],
      "credits": [
        {
          "role": "Director",
          "name": "Jean-Pierre Jeunet"
        },
        {
          "role": "Sigourney Weaver",
          "name": "Sigourney Weaver"
        },
        {
          "role": "Winona Ryder",
          "name": "Winona Ryder"
        },
        {
          "role": "Dominique Pinon",
          "name": "Dominique Pinon"
        }
      ],
      "parentalRatings": [
        {
          "scheme": "MPAA",
          "rating": "R"
        }
      ],
      "images": [
        {
          "type": "cover",
          "url": "http://lorempixel.com/214/317/?t=24",
          "width": 214,
          "height": 317,
          "id": "488cce8738773adf4ddf73a756766ae3"
        }
      ],
      "categories": [
        {
          "title": "Action",
          "description": "Action movies",
          "id": "movies-action"
        },
        {
          "title": "Sci-fi",
          "description": "Sci-fi movies",
          "id": "movies-sci-fi"
        },
        {
          "title": "Thriller",
          "description": "Thriller movies",
          "id": "movies-thriller"
        }
      ],
      "id": "alien-resurrection"
    },
    {
      "title": "Aliens",
      "description":
        "The planet from Alien has been colonized, but contact is lost. This time, the rescue team has impressive firepower, but will it be enough?",
      "type": "movie",
      "publishedDate": 527472000000,
      "availableDate": 527472000000,
      "metadata": [
        {
          "value": "en",
          "name": "language"
        }
      ],
      "contents": [
        {
          "url":
            "http://d2bqeap5aduv6p.cloudfront.net/project_coderush_640x360_521kbs_56min.mp4",
          "format": "mp4",
          "width": 640,
          "height": 360,
          "language": "en",
          "duration": 3600000,
          "geoLock": false,
          "id": "vid_103"
        }
      ],
      "credits": [
        {
          "role": "Director",
          "name": "James Cameron"
        },
        {
          "role": "Sigourney Weaver",
          "name": "Sigourney Weaver"
        },
        {
          "role": "Michael Biehn",
          "name": "Michael Biehn"
        },
        {
          "role": "Carrie Henn",
          "name": "Carrie Henn"
        }
      ],
      "parentalRatings": [
        {
          "scheme": "MPAA",
          "rating": "R"
        }
      ],
      "images": [
        {
          "type": "cover",
          "url": "http://lorempixel.com/214/317/?t=25",
          "width": 214,
          "height": 317,
          "id": "97c5cd9230b435a00c60932f2ff3add8"
        }
      ],
      "categories": [
        {
          "title": "Action",
          "description": "Action movies",
          "id": "movies-action"
        },
        {
          "title": "Adventure",
          "description": "Adventure movies",
          "id": "movies-adventure"
        },
        {
          "title": "Sci-fi",
          "description": "Sci-fi movies",
          "id": "movies-sci-fi"
        },
        {
          "title": "Thriller",
          "description": "Thriller movies",
          "id": "movies-thriller"
        }
      ],
      "id": "aliens"
    },
    {
      "title": "All the President's Men",
      "description":
        "Reporters Woodward and Bernstein uncover the details of the Watergate scandal that leads to President Nixon's resignation.",
      "type": "movie",
      "publishedDate": 197856000000,
      "availableDate": 197856000000,
      "metadata": [
        {
          "value": "en",
          "name": "language"
        }
      ],
      "contents": [
        {
          "url":
            "http://d2bqeap5aduv6p.cloudfront.net/project_coderush_640x360_521kbs_56min.mp4",
          "format": "mp4",
          "width": 1182,
          "height": 665,
          "language": "en",
          "duration": 0,
          "geoLock": false,
          "id": "vid_104"
        }
      ],
      "credits": [
        {
          "role": "Director",
          "name": "Alan J. Pakula"
        },
        {
          "role": "Dustin Hoffman",
          "name": "Dustin Hoffman"
        },
        {
          "role": "Robert Redford",
          "name": "Robert Redford"
        },
        {
          "role": "Jack Warden",
          "name": "Jack Warden"
        }
      ],
      "parentalRatings": [
        {
          "scheme": "MPAA",
          "rating": "R"
        }
      ],
      "images": [
        {
          "type": "cover",
          "url": "http://lorempixel.com/214/317/?t=26",
          "width": 214,
          "height": 317,
          "id": "6753893d856068292e1b3d0c77f4786d"
        }
      ],
      "categories": [
        {
          "title": "Drama",
          "description": "Drama movies",
          "id": "movies-drama"
        },
        {
          "title": "History",
          "description": "History movies",
          "id": "movies-history"
        },
        {
          "title": "Mystery",
          "description": "Mystery movies",
          "id": "movies-mystery"
        },
        {
          "title": "Thriller",
          "description": "Thriller movies",
          "id": "movies-thriller"
        }
      ],
      "id": "all-the-president-s-men"
    },
    {
      "title": "American Beauty",
      "description":
        "A sexually frustrated suburban father has a mid-life crisis after becoming infatuated with his daughter's best friend.",
      "type": "movie",
      "publishedDate": 949622400000,
      "availableDate": 949622400000,
      "metadata": [
        {
          "value": "en",
          "name": "language"
        }
      ],
      "contents": [
        {
          "url":
            "http://d2bqeap5aduv6p.cloudfront.net/project_coderush_640x360_521kbs_56min.mp4",
          "format": "mp4",
          "width": 640,
          "height": 360,
          "language": "en",
          "duration": 3600000,
          "geoLock": false,
          "id": "vid_103"
        }
      ],
      "credits": [
        {
          "role": "Director",
          "name": "Sam Mendes"
        },
        {
          "role": "Kevin Spacey",
          "name": "Kevin Spacey"
        },
        {
          "role": "Annette Bening",
          "name": "Annette Bening"
        },
        {
          "role": "Thora Birch",
          "name": "Thora Birch"
        }
      ],
      "parentalRatings": [
        {
          "scheme": "MPAA",
          "rating": "R"
        }
      ],
      "images": [
        {
          "type": "cover",
          "url": "http://lorempixel.com/214/317/?t=27",
          "width": 214,
          "height": 317,
          "id": "f2f9debf358931ca56d4715c0b979a62"
        }
      ],
      "categories": [
        {
          "title": "Drama",
          "description": "Drama movies",
          "id": "movies-drama"
        }
      ],
      "id": "american-beauty"
    },
    {
      "title": "American History X",
      "description":
        "A former neo-nazi skinhead tries to prevent his younger brother from going down the same wrong path that he did.",
      "type": "movie",
      "publishedDate": 922406400000,
      "availableDate": 922406400000,
      "metadata": [
        {
          "value": "en",
          "name": "language"
        }
      ],
      "contents": [
        {
          "url":
            "http://d2bqeap5aduv6p.cloudfront.net/project_coderush_640x360_521kbs_56min.mp4",
          "format": "mp4",
          "width": 640,
          "height": 360,
          "language": "en",
          "duration": 9000000,
          "geoLock": false,
          "id": "vid_102"
        }
      ],
      "credits": [
        {
          "role": "Director",
          "name": "Tony Kaye"
        },
        {
          "role": "Edward Norton",
          "name": "Edward Norton"
        },
        {
          "role": "Edward Furlong",
          "name": "Edward Furlong"
        },
        {
          "role": "Beverly D'Angelo",
          "name": "Beverly D'Angelo"
        }
      ],
      "parentalRatings": [
        {
          "scheme": "MPAA",
          "rating": "R"
        }
      ],
      "images": [
        {
          "type": "cover",
          "url": "http://lorempixel.com/214/317/?t=28",
          "width": 214,
          "height": 317,
          "id": "a8d4dc8138fa89acbe41a67dcaeb78d6"
        }
      ],
      "categories": [
        {
          "title": "Crime",
          "description": "Crime movies",
          "id": "movies-crime"
        },
        {
          "title": "Drama",
          "description": "Drama movies",
          "id": "movies-drama"
        }
      ],
      "id": "american-history-x"
    },
    {
      "title": "American Hustle",
      "description":
        "A con man, Irving Rosenfeld, along with his seductive partner Sydney Prosser, is forced to work for a wild FBI agent, Richie DiMaso, who pushes them into a world of Jersey powerbrokers and mafia.",
      "type": "movie",
      "publishedDate": 1388534400000,
      "availableDate": 1388534400000,
      "metadata": [
        {
          "value": "en",
          "name": "language"
        }
      ],
      "contents": [
        {
          "url":
            "http://d2bqeap5aduv6p.cloudfront.net/project_coderush_640x360_521kbs_56min.mp4",
          "format": "mp4",
          "width": 640,
          "height": 360,
          "language": "en",
          "duration": 3600000,
          "geoLock": false,
          "id": "vid_103"
        }
      ],
      "credits": [
        {
          "role": "Director",
          "name": "David O. Russell"
        },
        {
          "role": "Christian Bale",
          "name": "Christian Bale"
        },
        {
          "role": "Amy Adams",
          "name": "Amy Adams"
        },
        {
          "role": "Bradley Cooper",
          "name": "Bradley Cooper"
        }
      ],
      "parentalRatings": [
        {
          "scheme": "MPAA",
          "rating": "R"
        }
      ],
      "images": [
        {
          "type": "cover",
          "url": "",
          "width": 214,
          "height": 317,
          "id": "e57bec4583bfe77b8fdcc9b54223df80"
        }
      ],
      "categories": [
        {
          "title": "Crime",
          "description": "Crime movies",
          "id": "movies-crime"
        },
        {
          "title": "Drama",
          "description": "Drama movies",
          "id": "movies-drama"
        }
      ],
      "id": "american-hustle"
    }
  ]
}
